gelu.vcd
$date
	Sun Jun  7 10:07:39 2026
$end
$version
	Icarus Verilog
$end
$timescale
	1ps
$end
$scope module gelu_tb $end
$var wire 32 ! qout [31:0] $end
$var wire 1 " out_valid $end
$var parameter 32 # D_W $end
$var parameter 32 $ M $end
$var parameter 32 % Q1 $end
$var parameter 32 & QB $end
$var parameter 32 ' QC $end
$var parameter 32 ( SHIFT $end
$var reg 1 ) clk $end
$var reg 4 * in_addr [3:0] $end
$var reg 1 + in_valid $end
$var reg 4 , out_addr [3:0] $end
$var reg 32 - qin [31:0] $end
$var reg 2 . rst [1:0] $end
$scope module gelu_test $end
$var wire 1 ) clk $end
$var wire 1 + in_valid $end
$var wire 32 / q1 [31:0] $end
$var wire 32 0 qb [31:0] $end
$var wire 32 1 qc [31:0] $end
$var wire 32 2 qin [31:0] $end
$var wire 1 3 rst $end
$var parameter 32 4 D_W $end
$var parameter 32 5 SHIFT $end
$var reg 1 " out_valid $end
$var reg 1 6 out_valid1 $end
$var reg 1 7 out_valid2 $end
$var reg 1 8 out_valid3 $end
$var reg 1 9 out_valid4 $end
$var reg 32 : qb2 [31:0] $end
$var reg 32 ; qerf [31:0] $end
$var reg 32 < qin1 [31:0] $end
$var reg 32 = qin2 [31:0] $end
$var reg 32 > qin3 [31:0] $end
$var reg 32 ? qin4 [31:0] $end
$var reg 32 @ qin_abs [31:0] $end
$var reg 32 A ql [31:0] $end
$var reg 32 B qmin [31:0] $end
$var reg 32 C qout [31:0] $end
$var reg 1 D qsgn $end
$var reg 1 E qsgn2 $end
$var reg 1 F qsgn3 $end
$upscope $end
$scope begin CHECKER $end
$upscope $end
$upscope $end
$enddefinitions $end
$comment Show the parameter values. $end
$dumpall
b1110 5
b100000 4
b1110 (
b11111111111110101010110110111110 '
b11111111111111111111100011101000 &
b11111111111111111111111100100001 %
b1000 $
b100000 #
$end
#0
$dumpvars
xF
xE
xD
bx C
bx B
bx A
bx @
bx ?
bx >
bx =
bx <
bx ;
bx :
x9
x8
x7
x6
13
bx 2
b11111111111110101010110110111110 1
b11111111111111111111100011101000 0
b11111111111111111111111100100001 /
b11 .
bx -
bx ,
x+
bx *
0)
x"
bx !
$end
#5
b0 ,
0"
09
08
07
06
b0 !
b0 C
b0 ?
b0 ;
b0 >
0F
b0 A
b0 =
0E
b0 :
b0 B
b0 @
b0 <
0D
b1 .
b0 *
b0 -
b0 2
0+
1)
#10
0)
#15
03
b0 .
1)
#20
0)
#25
b11111111111110101010110110111110 A
b11111111111111111111000111010000 :
b1 *
b11111111111111111111011111110110 -
b11111111111111111111011111110110 2
1+
1)
#30
0)
#35
b10 *
b11111111111111111111101011011110 -
b11111111111111111111101011011110 2
16
b100000001010 @
b11111111111111111111011111110110 <
1D
1)
#40
0)
#45
17
b11111111111111111111011111110110 =
1E
b11100011000 B
b10100100010 @
b11111111111111111111101011011110 <
b11 *
b11111111111111111111011011111011 -
b11111111111111111111011011111011 2
1)
#50
0)
#55
b100 *
b11111111111111111111011111010111 -
b11111111111111111111011111010111 2
18
b11111111111111111111011111110110 >
1F
b11111111110010000101101101111110 A
b11111111111111111111101011011110 =
b10100100010 B
b100100000101 @
b11111111111111111111011011111011 <
1)
#60
0)
#65
19
b11111111111111111111011111110110 ?
b11111111110010000101101101111110 ;
b11111111111111111111101011011110 >
b11111111110011000011001111100010 A
b11111111111111111111011011111011 =
b11100011000 B
b100000101001 @
b11111111111111111111011111010111 <
b101 *
b11111111111111111111100011100010 -
b11111111111111111111100011100010 2
1)
#70
0)
#75
b110 *
b11111111111111111111100101100100 -
b11111111111111111111100101100100 2
1"
b11011111111001100000000101101100 !
b11011111111001100000000101101100 C
b11111111111111111111101011011110 ?
b11111111110011000011001111100010 ;
b11111111111111111111011011111011 >
b11111111110010000101101101111110 A
b11111111111111111111011111010111 =
b11100011110 @
b11111111111111111111100011100010 <
1)
#80
0)
#85
b1 ,
b11101011100000001010010000111110 !
b11101011100000001010010000111110 C
b11111111111111111111011011111011 ?
b11111111110010000101101101111110 ;
b11111111111111111111011111010111 >
b11111111111111111111100011100010 =
b11010011100 @
b11111111111111111111100101100100 <
b111 *
b11111111111111111111011111010011 -
b11111111111111111111011111010011 2
1)
#90
0)
#95
b10 ,
b1000 *
b11111111111111111111100100110011 -
b11111111111111111111100100110011 2
b11011011111110111011011010110110 !
b11011011111110111011011010110110 C
b11111111111111111111011111010111 ?
b11111111111111111111100011100010 >
b11111111111111111111100101100100 =
b11010011100 B
b100000101101 @
b11111111111111111111011111010011 <
1)
#100
0)
#105
b11 ,
b11011111011010100011011101101110 !
b11011111011010100011011101101110 C
b11111111111111111111100011100010 ?
b11111111111111111111100101100100 >
b11111111110010001001011110001110 A
b11111111111111111111011111010011 =
b11100011000 B
b11011001101 @
b11111111111111111111100100110011 <
0+
1)
#110
0)
#115
b100 ,
b11100011100101000110011001000100 !
b11100011100101000110011001000100 C
b11111111111111111111100101100100 ?
b11111111110010001001011110001110 ;
b11111111111111111111011111010011 >
b11111111110010000101101101111110 A
b11111111111111111111100100110011 =
b11011001101 B
06
b11011001101 @
1)
#120
0)
#125
b101 ,
b11100101100110110111110100101100 !
b11100101100110110111110100101100 C
b11111111111111111111011111010011 ?
b11111111110010000101101101111110 ;
b11111111111111111111100100110011 >
b11111111110010000111000101110111 A
07
b11011001101 @
1)
#130
0)
#135
b110 ,
b11011111010110100011111001100110 !
b11011111010110100011111001100110 C
b11111111111111111111100100110011 ?
b11111111110010000111000101110111 ;
08
b11011001101 @
1)
#140
0)
#145
b111 ,
b11100100110101111101100100100110 !
b11100100110101111101100100100110 C
09
b11011001101 @
1)
#150
0)
#155
b1000 ,
0"
b11011001101 @
1)
#160
0)
#165
b11011001101 @
1)
#170
0)
#175
b11011001101 @
1)
#180
0)
#185
b11011001101 @
1)
#190
0)
#195
b11011001101 @
1)
#200
0)
#205
b11011001101 @
1)
#210
0)
#215
b11011001101 @
1)
#220
0)
#225
b11011001101 @
1)
#230
0)
#235
b11011001101 @
1)
#240
0)
#245
b11011001101 @
1)
#250
0)
#255
b11011001101 @
1)
#260
0)
#265
b11011001101 @
1)
#270
0)
#275
b11011001101 @
1)
